VARIABLES = "X", "Y", "Z" 
ZONE t="t:0", N=595, E=1104, F=FEPOINT, ET=TRIANGLE
0 0 0
10 0 0
10 3 0
0 3 0
0.7301055911049985 0 0
1.460211182210026 0 0
2.190316773314283 0 0
2.920422364418158 0 0
3.464527884752466 0 0
4.008633405087018 0 0
4.552738925421731 0 0
5.09684444575715 0 0
5.502334872653404 0 0
5.907825299550165 0 0
6.313315726446299 0 0
6.7188061533433 0 0
7.020994701775823 0 0
7.323183250208562 0 0
7.625371798641027 0 0
7.927560347073439 0 0
8.152764017860491 0 0
8.377967688647454 0 0
8.603171359434537 0 0
8.828375030221538 0 0
8.996206306489787 0 0
9.164037582758237 0 0
9.331868859026642 0 0
9.499700135294836 0 0
9.624775101471144 0 0
9.749850067647339 0 0
9.874925033823624 0 0
10 0.1249999999994667 0
10 0.249999999998947 0
10 0.3749999999984642 0
10 0.499999999997822 0
10 0.6249999999973137 0
10 0.7499999999968733 0
10 0.8749999999963549 0
10 0.9999999999960245 0
10 1.124999999995682 0
10 1.249999999995177 0
10 1.374999999994731 0
10 1.499999999994285 0
10 1.62499999999478 0
10 1.749999999995276 0
10 1.87499999999594 0
10 1.999999999996158 0
10 2.124999999996557 0
10 2.249999999997025 0
10 2.374999999997317 0
10 2.499999999998079 0
10 2.624999999998515 0
10 2.749999999999141 0
10 2.874999999999708 0
9.874925033823747 3 0
9.749850067647401 3 0
9.624775101471338 3 0
9.499700135295209 3 0
9.331868859027091 3 0
9.164037582758924 3 0
8.996206306490686 3 0
8.828375030222535 3 0
8.603171359435741 3 0
8.377967688648788 3 0
8.152764017861584 3 0
7.927560347075451 3 0
7.625371798643373 3 0
7.323183250211402 3 0
7.020994701779227 3 0
6.718806153346904 3 0
6.313315726450952 3 0
5.907825299555107 3 0
5.502334872659157 3 0
5.096844445763184 3 0
4.552738925428398 3 0
4.008633405092869 3 0
3.464527884758706 3 0
2.920422364423092 3 0
2.190316773316932 3 0
1.460211182210497 3 0
0.7301055911050263 3 0
0 2.250000000000924 0
0 1.500000000004172 0
0 0.7500000000018163 0
8.468060655199078 1.499999999999666 0
9.235449836112679 2.186930564034465 0
9.235449836117692 0.813069435960147 0
6.938045367866224 1.499999999999736 0
9.237480381494272 1.499999999995781 0
8.455047748576957 2.296457374926315 0
8.455047748587331 0.703542625076655 0
5.249811749060798 1.499999999999948 0
7.327679798934424 0.7582417804555265 0
7.327679798933581 2.241758219546635 0
1.460211182211546 1.500000000002402 0
3.71089382882184 1.4999999999987 0
9.62311360100599 1.231841544596384 0
9.622799202418012 1.765132046161918 0
9.562537393221231 2.562574988653748 0
9.562537393225261 0.4374250113416649 0
8.851370395290591 1.164856419869288 0
8.851338069148921 1.837222709298328 0
6.250570921241957 2.014611046199724 0
6.263626406033975 0.9621421377758221 0
7.754381164255201 1.500000000004744 0
9.129883615566147 0.3567037779674922 0
9.129883615563767 2.643296222032168 0
9.662897258372304 2.187789225198537 0
9.662929339864128 0.8119019575253995 0
8.111220909727139 1.500000000002205 0
8.104714456421267 1.1017713125407 0
8.461554201893204 1.101771312538161 0
8.461554201888017 1.89822868746299 0
8.10471445641608 1.898228687465529 0
9.182666725838223 2.415113393033316 0
8.792465682070361 2.469876798479241 0
8.845248792344819 2.24169396948039 0
8.84524879235251 0.7583060305184011 0
8.792465682076738 0.5301232015220736 0
9.182666725841919 0.5848866069638197 0
8.641711389404435 0.3517713125383275 0
8.191304047830386 0.3517713125383275 0
8.191304047826204 2.648228687463157 0
8.641711389399745 2.648228687463157 0
9.429281718561839 1.022455490278266 0
9.430296991250131 1.365920772296083 0
9.236465108805982 1.156534717977964 0
9.236465108803475 1.843465282015123 0
9.430139791956142 1.63256602307885 0
9.429124519265345 1.976031305098191 0
7.627620073003932 0.3791208902277632 0
7.023242976138862 0.3791208902277632 0
7.023242976140242 2.620879109773317 0
7.627620073004516 2.620879109773317 0
8.979129322893151 2.821648111016084 0
8.979129322893844 0.1783518889837461 0
4.403869137292513 2.24999999999935 0
4.480352788941317 1.499999999999324 0
5.173328097411992 2.249999999999974 0
5.173328097408976 0.7499999999999739 0
4.403869137289495 0.7499999999993501 0
9.781268696610615 2.781287494326873 0
9.781268696610617 2.531287494325913 0
9.781268696612631 0.4687125056697434 0
9.781268696612633 0.2187125056708325 0
9.53111876425822 2.781287494326874 0
9.531118764260048 0.2187125056708325 0
3.315658096622466 2.24999999999935 0
3.315658096619999 0.7499999999993501 0
6.7956531024842 0.8601919591156744 0
6.491216279688637 0.4810710688879111 0
6.484688537294431 2.507305523099862 0
6.78912536008777 2.128184632873179 0
7.541030481594813 1.129120890230135 0
7.891363773760878 0.7308922027660907 0
7.89136377375527 2.269107797236475 0
7.541030481594391 1.870879109775689 0
6.600835886950099 1.231071068887779 0
7.132862583400325 1.129120890227631 0
7.132862583399903 1.870879109773185 0
6.594308144554091 1.75730552309973 0
5.680235425895565 0.4810710688879111 0
5.673707683502573 2.507305523099863 0
9.044425388392431 1.332428209932534 0
9.043410115704141 0.9889629279147174 0
9.043393952630801 2.012076636666396 0
9.044409225321598 1.668611354647055 0
9.31479187542949 2.821648111016084 0
9.31479187543049 0.1783518889837461 0
8.653192908862939 2.066840042112322 0
8.65320907193896 0.9341995224729713 0
0.7301055911057731 2.250000000001201 0
2.190316773317319 2.250000000001201 0
2.190316773314852 0.7500000000012009 0
0.7301055911057731 0.7500000000012009 0
8.851354232219755 1.501039564583808 0
9.642848230395158 1.976460635680227 0
9.449173547242491 2.187359894616501 0
9.44918958799091 0.8124856967427733 0
9.643021470435057 1.021871751060892 0
8.659699362173999 1.668611354648997 0
8.659715525244835 1.332428209934477 0
2.585552505516693 1.500000000000551 0
9.811556800502995 1.365920772295334 0
9.811556800502993 1.115920772296204 0
9.811399601209006 1.882566023079038 0
9.811399601209006 1.632566023078101 0
9.831448629186152 2.343894612598308 0
9.831448629186152 2.093894612597348 0
9.831464669932064 0.9059509787607121 0
9.831464669932064 0.6559509787616107 0
5.756719077547383 1.231071068887885 0
5.75019133515138 1.757305523099836 0
6.257098663637966 1.488376591987773 0
9.622956401712001 1.498486795379151 0
9.612717325796769 2.375182106926142 0
9.612733366544697 0.6246634844335323 0
7.346213266060713 1.50000000000224 0
9.346210504395705 0.3970643946545785 0
9.346210504392499 2.602935605342958 0
9.398993614666953 2.374752776344106 0
9.398993614671475 0.625247223650906 0
8.28964078246311 1.500000000000936 0
8.286387555810173 1.300885656270183 0
8.464807428546141 1.300885656268913 0
8.107967683074204 1.300885656271452 0
8.283134329157235 1.10177131253943 0
7.932801036991171 1.500000000003475 0
7.929547810338233 1.300885656272722 0
8.279881102504298 0.9026569688086773 0
8.458300975240267 0.9026569688074078 0
8.464807428543548 1.699114343731328 0
8.286387555807579 1.699114343732598 0
8.283134329152048 1.89822868746426 0
8.10796768307161 1.699114343733867 0
8.458300975232486 2.097343031194653 0
8.279881102496518 2.097343031195922 0
7.92954781033564 1.699114343735137 0
9.209058280975452 2.301021978533891 0
9.013957759091522 2.328403681256853 0
9.040349314228749 2.214312266757427 0
8.987566203954291 2.442495095756279 0
8.81885723720759 2.355785383979816 0
9.156275170700994 2.529204807532742 0
8.961174648817064 2.556586510255705 0
8.623756715323658 2.383167086702778 0
8.650148270460889 2.269075672203352 0
9.040349314235101 0.785687733239274 0
9.013957759097215 0.6715963187411104 0
9.209058280979805 0.6989780214619834 0
8.818857237214624 0.6442146160202373 0
8.987566203959329 0.5575049042429466 0
8.65014827046992 0.730924327797528 0
8.623756715332036 0.6168329132993643 0
8.961174648821443 0.4434134897447829 0
9.156275170704033 0.4707951924656559 0
8.284635868238919 0.1758856562691637 0
8.059432197451912 0.1758856562691637 0
8.509839539025943 0.1758856562691637 0
8.41650771861741 0.3517713125383275 0
8.735043209812986 0.1758856562691637 0
8.548379568995884 0.5276569688074912 0
8.323175898208859 0.5276569688074912 0
8.509839539024266 2.824114343731579 0
8.73504320981114 2.824114343731579 0
8.284635868237496 2.824114343731579 0
8.416507718612975 2.648228687463157 0
8.059432197450828 2.824114343731579 0
8.32317589820158 2.472343031194736 0
8.548379568988352 2.472343031194736 0
9.332365777339767 0.9177624631192063 0
9.332873413683908 1.089495104128115 0
9.235957472461838 0.9848020769690555 0
9.429789354905983 1.194188131287174 0
9.333381050028054 1.261227745137024 0
9.526197659783916 1.127148517437325 0
9.52670529612806 1.298881158446234 0
9.333888686372202 1.432960386145932 0
9.236972745150126 1.328267358986873 0
9.235957472458077 2.015197923024794 0
9.332794814034409 1.909748293556657 0
9.332287177689009 2.081480934566328 0
9.333302450379808 1.738015652546986 0
9.429632155610744 1.804298664088521 0
9.236972745148872 1.671732641005452 0
9.333810086725208 1.566283011537315 0
9.526469497187074 1.698849034620384 0
9.525961860841678 1.870581675630055 0
7.173213113173712 0.1895604451138816 0
6.871024564741081 0.1895604451138816 0
7.475401661606247 0.1895604451138816 0
7.325431524571397 0.3791208902277632 0
7.777590210038685 0.1895604451138816 0
7.477649935969178 0.5686813353416449 0
7.175461387536643 0.5686813353416449 0
7.475401661607959 2.810439554886659 0
7.777590210039984 2.810439554886659 0
7.173213113175822 2.810439554886659 0
7.325431524572379 2.620879109773317 0
6.871024564743573 2.810439554886659 0
7.175461387536911 2.431318664659976 0
7.477649935969049 2.431318664659976 0
8.810420356146448 2.734938399239621 0
8.903752176557843 2.910824055508042 0
8.717088535735053 2.5590527429712 0
8.885797502481756 2.645762454747663 0
9.054506469228459 2.732472166524127 0
8.903752176557692 0.08917594449187305 0
8.810420356149139 0.2650616007610368 0
8.885797502485291 0.3542375452529098 0
8.717088535740587 0.4409472570302005 0
9.054506469229995 0.2675278334756191 0
4.750356791527849 2.624999999999675 0
4.788598617352252 2.249999999999662 0
5.135086271587586 2.624999999999986 0
4.442110963116916 1.874999999999337 0
4.826840443176656 1.874999999999649 0
4.057381483057176 1.874999999999025 0
4.095623308881579 1.499999999999012 0
4.865082269001055 1.499999999999636 0
5.211569923236396 1.874999999999961 0
5.135086271583063 0.374999999999987 0
4.788598617349234 0.749999999999662 0
4.750356791523322 0.374999999999675 0
4.826840443175146 1.124999999999649 0
4.442110963115406 1.124999999999337 0
5.211569923234888 1.124999999999961 0
4.057381483055668 1.124999999999025 0
9.890634348305305 2.890643747163436 0
9.890634348305309 2.765643747163007 0
9.781268696610617 2.656287494326393 0
9.89063434830531 2.640643747162527 0
9.67190304491592 2.671931241490311 0
9.671903044915926 2.546931241489831 0
9.890634348305307 2.515643747161996 0
9.890634348306317 0.2343562528348898 0
9.890634348306317 0.1093562528354162 0
9.890634348306314 0.3593562528343452 0
9.781268696612633 0.3437125056702879 0
9.890634348306316 0.4843562528337827 0
9.671903044918947 0.4530687585057042 0
9.671903044918949 0.3280687585062487 0
9.765559382129009 2.890643747163437 0
9.640484415952811 2.890643747163437 0
9.656193730434415 2.781287494326873 0
9.515409449776715 2.890643747163437 0
9.546828078739724 2.671931241490311 0
9.765559382129984 0.1093562528354162 0
9.656193730436341 0.2187125056708325 0
9.640484415953695 0.1093562528354162 0
9.546828078742653 0.3280687585062487 0
9.515409449777442 0.1093562528354162 0
4.206251271192691 2.624999999999674 0
3.662145750857668 2.624999999999675 0
3.85976361695749 2.24999999999935 0
3.11804023052278 2.624999999999675 0
3.513275962722154 1.874999999999025 0
3.662145750853509 0.374999999999675 0
3.118040230519079 0.374999999999675 0
4.206251271188256 0.374999999999675 0
3.859763616954748 0.7499999999993501 0
3.51327596272092 1.124999999999025 0
6.75722962791375 0.4300959795578372 0
6.605011216515969 0.2405355344439555 0
6.909448039311531 0.6196564246717188 0
6.643434691086418 0.6706315140017927 0
7.061666450709312 0.8092168697856004 0
6.529639754259087 0.9111670484457483 0
6.377421342861306 0.7216066033318667 0
6.601747345320668 2.753652761549931 0
6.753965756717337 2.564092316436589 0
6.636906948691101 2.31774507798652 0
6.906184168114006 2.374531871323248 0
6.367629729268193 2.260958284649793 0
6.519848140664863 2.071397839536451 0
7.058402579510675 2.184971426209906 0
7.998039115091072 0.9163317576533951 0
8.173205761174104 0.7172174139213728 0
7.82287246900804 1.115446101385417 0
7.716197127677845 0.930006546498113 0
7.647705822925007 1.31456044511744 0
7.434355140264619 0.9436813353428308 0
7.609521786347651 0.7445669916108086 0
8.173205761166113 2.282782586081395 0
7.998039115085675 2.083668242351002 0
7.71619712767483 2.069993453506082 0
7.822872469005235 1.884553898620609 0
7.609521786344425 2.255433008391555 0
7.434355140263986 2.056318664661162 0
7.647705822924796 1.685439554890217 0
6.769440627408162 1.365535534443758 0
6.866849235175212 1.180095979557705 0
7.035453975633274 1.314560445113684 0
6.69824449471715 1.045631514001727 0
6.964257842942262 0.9946564246716528 0
6.432231146492037 1.0966066033318 0
7.230271191167374 0.9436813353415789 0
7.035453975633064 1.685439554886461 0
6.863585363976997 1.814092316436458 0
6.766176756210157 1.628652761549733 0
6.960993971743836 1.999531871323182 0
6.69171675232093 1.942745077986454 0
7.230271191166742 2.05631866465991 0
6.422439532898024 1.885958284649727 0
7.909462060417159 0.3654461013830453 0
8.041333910795633 0.5413317576522091 0
7.759491923382405 0.5550065464969269 0
7.90946206041536 2.634553898618237 0
7.759491923379893 2.444993453504896 0
8.041333910790737 2.458668242349816 0
5.794030362722865 0.2405355344439555 0
5.388539935826357 0.2405355344439555 0
6.199520789619401 0.2405355344439555 0
6.085725852792101 0.4810710688879111 0
5.971930915964769 0.7216066033318667 0
6.196256918424769 2.753652761549931 0
5.79076649152884 2.753652761549931 0
6.079198110398502 2.507305523099862 0
5.385276064632876 2.75365276154993 0
5.962139302372265 2.260958284649793 0
9.139937612255061 1.072748822946341 0
9.139429975910916 0.9010161819374323 0
9.140445248599207 1.244481463955249 0
9.043917752048287 1.160695568923626 0
9.140952884943353 1.416214104964158 0
8.94789789184151 1.248642314900911 0
8.947390255497366 1.076909673892003 0
9.13942189437174 2.099503600350431 0
9.139929530717138 1.92777095934076 0
9.043901588976199 1.840343995656726 0
9.140437167062537 1.756038318331089 0
8.947366010889862 1.924649672982362 0
8.947873647235259 1.752917031972691 0
9.140944803407935 1.584305677321418 0
9.239414729094209 2.910824055508042 0
9.407246005362349 2.910824055508042 0
9.071583452826037 2.910824055508042 0
9.14696059916132 2.821648111016084 0
9.222337745496628 2.732472166524126 0
9.07158345282604 0.08917594449187305 0
9.239414729094364 0.08917594449187305 0
9.146960599162167 0.1783518889837461 0
9.407246005362662 0.08917594449187305 0
9.222337745498319 0.2675278334756191 0
8.94432137248781 2.126885303073393 0
8.74922085060388 2.154267005796356 0
8.848293430746871 2.039458339389359 0
8.554120328719948 2.181648708519318 0
8.75226548900593 1.952031375705325 0
8.944329454028326 0.8736344792165592 0
8.848309593821551 0.9615812251938444 0
8.749228932145735 0.8462527764956862 0
8.752289733614775 1.04952797117113 0
8.554128410263147 0.8188710737748132 0
0.3650527955528866 2.6250000000006 0
1.095158386658135 2.6250000000006 0
1.460211182211546 2.250000000001201 0
1.825263977763908 2.6250000000006 0
1.09515838665866 1.875000000001801 0
1.825263977764433 1.875000000001801 0
2.555369568870206 2.6250000000006 0
1.0951583866579 0.3750000000006005 0
0.3650527955528866 0.3750000000006005 0
1.825263977762439 0.3750000000006005 0
1.460211182210313 0.7500000000012009 0
2.555369568866505 0.3750000000006005 0
1.825263977763199 1.125000000001801 0
1.09515838665866 1.125000000001801 0
9.044417306857014 1.500519782289794 0
8.947881728770676 1.584825459615431 0
8.947889810306094 1.416733887258171 0
8.851346150684339 1.669131136941068 0
8.851362313755173 1.332947992226548 0
9.439149033253921 2.081695599857346 0
9.342311691677585 2.187145229325483 0
9.53598637483025 1.976245970389209 0
9.546010888818826 2.081910265148364 0
9.632823716406586 1.870796340921073 0
9.652872744383732 2.082124930439382 0
9.556035402807398 2.187574559907519 0
9.3423197120543 0.8127775663514601 0
9.439235653276372 0.9174705935105194 0
9.546105529212983 0.9171787239018325 0
9.536151594498449 1.022163620669579 0
9.556059463927518 0.8121938271340864 0
9.652975405149592 0.9168868542931456 0
9.633067535720524 1.126856647828638 0
8.563880008686539 1.584305677324332 0
8.560626782031008 1.783420021055994 0
8.656446135518468 1.867725698380659 0
8.557373555375477 1.982534364787656 0
8.755518715661459 1.752917031973663 0
8.560634863569019 1.217099761236319 0
8.563888090221957 1.416214104967072 0
8.557381636916082 1.017985417505566 0
8.656462298591897 1.133313866203724 0
8.755542960267713 1.248642314901882 0
0.3650527955528866 1.125000000002687 0
0.7301055911057731 1.500000000001201 0
0.3650527955528866 1.875000000002687 0
2.752987434967425 0.7500000000002756 0
2.950605301068346 1.124999999999951 0
2.387934639415772 1.125000000000876 0
3.148223167169267 1.499999999999626 0
2.02288184386412 1.500000000001477 0
2.752987434969893 2.250000000000275 0
2.387934639417006 1.875000000000876 0
2.950605301069579 1.87499999999995 0
8.659707443709417 1.500519782291737 0
8.755534878732295 1.416733887259142 0
8.755526797196877 1.584825459616403 0
9.905778400251496 1.182960386145691 0
9.905778400251496 1.057960386146114 0
9.905778400251497 1.307960386145256 0
9.811556800502995 1.240920772295769 0
9.905778400251497 1.432960386144809 0
9.717335200754492 1.298881158445859 0
9.717335200754491 1.173881158446294 0
9.905699800604502 1.691283011536689 0
9.9056998006045 1.566283011536193 0
9.905699800604504 1.816283011537157 0
9.811399601209006 1.75756602307857 0
9.905699800604502 1.941283011537598 0
9.717099401813508 1.823849034620478 0
9.71709940181351 1.69884903462001 0
9.915724314593076 2.171947306297186 0
9.915724314593078 2.046947306296753 0
9.915724314593076 2.296947306297666 0
9.831448629186152 2.218894612597828 0
9.915724314593078 2.421947306298193 0
9.747172943779228 2.265841918898422 0
9.747172943779228 2.140841918897943 0
9.915732334966032 0.7029754893792419 0
9.915732334966032 0.5779754893797163 0
9.915732334966032 0.8279754893787927 0
9.831464669932062 0.7809509787611614 0
9.915732334966032 0.9529754893783683 0
9.747197004898096 0.8589264681430557 0
9.747197004898096 0.7339264681435052 0
5.42678176165227 0.6155355344439425 0
5.718477251721474 0.8560710688878979 0
5.465023587478179 0.9905355344439293 0
6.010172741790679 1.096606603331853 0
5.503265413304091 1.365535534443916 0
5.423517890457285 2.378652761549919 0
5.461759716281686 2.003652761549905 0
5.711949509326977 2.132305523099849 0
5.500001542106092 1.628652761549892 0
6.000381128196668 1.88595828464978 0
6.597572015752095 1.494188295993754 0
6.425703404096028 1.622841057543751 0
6.428967275294033 1.359723830437776 0
6.253834792439962 1.751493819093748 0
6.26036253483597 1.225259364881798 0
9.811478200856001 1.499243397686718 0
9.717178001460503 1.565526409228626 0
9.717256601107497 1.432203783837243 0
9.622877802065007 1.631809420770535 0
9.623035001358996 1.365164169987768 0
9.806358662898386 2.437591053462111 0
9.696993011203695 2.453234800626028 0
9.722082977491461 2.359538359762225 0
9.587627359509002 2.468878547789945 0
9.637807292084538 2.281485666062339 0
9.806366683272346 0.5623317422156771 0
9.72209901823838 0.6403072315975715 0
9.697001031578665 0.5466879950516379 0
9.637831353204414 0.7182827209794659 0
9.587635379884981 0.5310442478875986 0
5.753455206349384 1.494188295993861 0
6.006908870592675 1.359723830437829 0
6.003644999394673 1.622841057543804 0
9.430218391603137 1.499243397687466 0
9.526626696481067 1.432203783837617 0
9.526548096834071 1.565526409229001 0
7.239537924730518 1.314560445114936 0
7.142129316963469 1.500000000000988 0
7.336946532497569 1.129120890228883 0
7.443621873827762 1.314560445116188 0
7.550297215157957 1.500000000003492 0
7.239537924730309 1.685439554887713 0
7.443621873827552 1.685439554888965 0
7.336946532497147 1.870879109774437 0
9.821510735217529 1.010935875528458 0
9.727289135469023 1.068896261678548 0
9.737243070183558 0.963911364910802 0
9.821424115197582 1.988230317838193 0
9.737148429790652 2.035177624138787 0
9.727123915802082 1.929513329379633 0
9.422955319845268 0.1985321973272893 0
9.438664634327877 0.3078884501627055 0
9.330501189913097 0.2877081418191623 0
9.454373948810485 0.4172447029981218 0
9.238047059980925 0.3768840863110354 0
9.422955319843854 2.801467802671479 0
9.330501189910994 2.712291858179521 0
9.43866463432536 2.692111549834916 0
9.238047059978133 2.623115913687563 0
9.454373948806866 2.582755296998353 0
9.317221725389818 2.280841670189285 0
9.290830170252587 2.394933084688711 0
9.372602059529726 2.488844190843531 0
9.26443861511536 2.509024499188137 0
9.480765503944092 2.468663882498927 0
9.290830170256697 0.6050669153073629 0
9.317221725394583 0.7191583298055265 0
9.264438615118813 0.4909755008091991 0
9.372602059533593 0.5111558091527423 0
9.480765503948369 0.5313361174962855 0
9.424083580954724 2.281056335480304 0
9.530945436519628 2.281271000771321 0
9.505855470231861 2.374967441635124 0
9.42409160133119 0.7188664601968396 0
9.505863490608085 0.6249553540422191 0
9.530961477267802 0.7185745905881528 0
85 203 205
203 204 205
203 110 204
205 204 112
110 206 204
206 207 204
206 111 207
204 207 112
110 208 206
208 209 206
208 105 209
206 209 111
112 207 211
207 210 211
207 111 210
211 210 91
85 212 203
212 213 203
212 113 213
203 213 110
113 214 213
214 215 213
214 114 215
213 215 110
113 216 214
216 217 214
216 90 217
214 217 114
110 215 208
215 218 208
215 114 218
208 218 105
86 219 221
219 220 221
219 115 220
221 220 117
115 222 220
222 223 220
222 116 223
220 223 117
115 224 222
224 225 222
224 107 225
222 225 116
117 223 227
223 226 227
223 116 226
227 226 90
87 228 230
228 229 230
228 118 229
230 229 120
118 231 229
231 232 229
231 119 232
229 232 120
118 233 231
233 234 231
233 91 234
231 234 119
120 232 236
232 235 236
232 119 235
236 235 106
20 21 238
21 237 238
21 22 237
238 237 122
22 239 237
239 240 237
239 121 240
237 240 122
22 23 239
23 241 239
23 24 241
239 241 121
122 240 243
240 242 243
240 121 242
243 242 91
62 63 245
63 244 245
63 64 244
245 244 124
64 246 244
246 247 244
246 123 247
244 247 124
64 65 246
65 248 246
65 66 248
246 248 123
124 247 250
247 249 250
247 123 249
250 249 90
87 251 253
251 252 253
251 125 252
253 252 127
125 254 252
254 255 252
254 126 255
252 255 127
125 256 254
256 257 254
256 97 257
254 257 126
127 255 259
255 258 259
255 126 258
259 258 89
86 260 262
260 261 262
260 128 261
262 261 130
128 263 261
263 264 261
263 129 264
261 264 130
128 265 263
265 266 263
265 89 266
263 266 129
130 264 268
264 267 268
264 129 267
268 267 98
16 17 270
17 269 270
17 18 269
270 269 132
18 271 269
271 272 269
271 131 272
269 272 132
18 19 271
19 273 271
19 20 273
271 273 131
132 272 275
272 274 275
272 131 274
275 274 93
66 67 277
67 276 277
67 68 276
277 276 134
68 278 276
278 279 276
278 133 279
276 279 134
68 69 278
69 280 278
69 70 280
278 280 133
134 279 282
279 281 282
279 133 281
282 281 94
62 245 284
245 283 284
245 124 283
284 283 135
124 285 283
285 286 283
285 116 286
283 286 135
124 250 285
250 226 285
250 90 226
285 226 116
135 286 287
286 225 287
286 116 225
287 225 107
24 288 241
288 289 241
288 136 289
241 289 121
136 290 289
290 291 289
290 119 291
289 291 121
136 292 290
292 235 290
292 106 235
290 235 119
121 291 242
291 234 242
291 119 234
242 234 91
74 293 295
293 294 295
293 137 294
295 294 139
137 296 294
296 297 294
296 138 297
294 297 139
137 298 296
298 299 296
298 96 299
296 299 138
139 297 301
297 300 301
297 138 300
301 300 92
12 302 304
302 303 304
302 140 303
304 303 141
140 305 303
305 306 303
305 138 306
303 306 141
140 307 305
307 300 305
307 92 300
305 300 138
141 306 308
306 299 308
306 138 299
308 299 96
3 309 54
309 310 54
309 142 310
54 310 53
142 311 310
311 312 310
311 143 312
310 312 53
142 313 311
313 314 311
313 99 314
311 314 143
53 312 52
312 315 52
312 143 315
52 315 51
2 32 317
32 316 317
32 33 316
317 316 145
33 318 316
318 319 316
318 144 319
316 319 145
33 34 318
34 320 318
34 35 320
318 320 144
145 319 322
319 321 322
319 144 321
322 321 100
3 55 309
55 323 309
55 56 323
309 323 142
56 324 323
324 325 323
324 146 325
323 325 142
56 57 324
57 326 324
57 58 326
324 326 146
142 325 313
325 327 313
325 146 327
313 327 99
2 317 31
317 328 31
317 145 328
31 328 30
145 329 328
329 330 328
329 147 330
328 330 30
145 322 329
322 331 329
322 100 331
329 331 147
30 330 29
330 332 29
330 147 332
29 332 28
74 75 293
75 333 293
75 76 333
293 333 137
76 334 333
334 335 333
334 148 335
333 335 137
76 77 334
77 336 334
77 78 336
334 336 148
137 335 298
335 337 298
335 148 337
298 337 96
8 9 339
9 338 339
9 10 338
339 338 149
10 340 338
340 341 338
340 141 341
338 341 149
10 11 340
11 304 340
11 12 304
340 304 141
149 341 342
341 308 342
341 141 308
342 308 96
16 270 344
270 343 344
270 132 343
344 343 151
132 345 343
345 346 343
345 150 346
343 346 151
132 275 345
275 347 345
275 93 347
345 347 150
151 346 349
346 348 349
346 150 348
349 348 104
70 350 280
350 351 280
350 152 351
280 351 133
152 352 351
352 353 351
352 153 353
351 353 133
152 354 352
354 355 352
354 103 355
352 355 153
133 353 281
353 356 281
353 153 356
281 356 94
91 210 358
210 357 358
210 111 357
358 357 155
111 359 357
359 360 357
359 154 360
357 360 155
111 209 359
209 361 359
209 105 361
359 361 154
155 360 363
360 362 363
360 154 362
363 362 93
90 364 217
364 365 217
364 156 365
217 365 114
156 366 365
366 367 365
366 157 367
365 367 114
156 368 366
368 369 366
368 94 369
366 369 157
114 367 218
367 370 218
367 157 370
218 370 105
88 371 373
371 372 373
371 158 372
373 372 159
158 374 372
374 375 372
374 150 375
372 375 159
158 376 374
376 348 374
376 104 348
374 348 150
159 375 377
375 347 377
375 150 347
377 347 93
88 378 380
378 379 380
378 160 379
380 379 161
160 381 379
381 382 379
381 153 382
379 382 161
160 383 381
383 356 381
383 94 356
381 356 153
161 382 384
382 355 384
382 153 355
384 355 103
20 238 273
238 385 273
238 122 385
273 385 131
122 386 385
386 387 385
386 155 387
385 387 131
122 243 386
243 358 386
243 91 358
386 358 155
131 387 274
387 363 274
387 155 363
274 363 93
66 277 248
277 388 248
277 134 388
248 388 123
134 389 388
389 390 388
389 156 390
388 390 123
134 282 389
282 368 389
282 94 368
389 368 156
123 390 249
390 364 249
390 156 364
249 364 90
12 13 392
13 391 392
13 14 391
392 391 162
14 393 391
393 394 391
393 151 394
391 394 162
14 15 393
15 344 393
15 16 344
393 344 151
162 394 395
394 349 395
394 151 349
395 349 104
70 71 350
71 396 350
71 72 396
350 396 152
72 397 396
397 398 396
397 163 398
396 398 152
72 73 397
73 399 397
73 74 399
397 399 163
152 398 354
398 400 354
398 163 400
354 400 103
87 253 402
253 401 402
253 127 401
402 401 165
127 403 401
403 404 401
403 164 404
401 404 165
127 259 403
259 405 403
259 89 405
403 405 164
165 404 407
404 406 407
404 164 406
407 406 101
86 408 260
408 409 260
408 166 409
260 409 128
166 410 409
410 411 409
410 167 411
409 411 128
166 412 410
412 413 410
412 102 413
410 413 167
128 411 265
411 414 265
411 167 414
265 414 89
58 59 416
59 415 416
59 60 415
416 415 168
60 417 415
417 418 415
417 135 418
415 418 168
60 61 417
61 284 417
61 62 284
417 284 135
168 418 419
418 287 419
418 135 287
419 287 107
24 25 288
25 420 288
25 26 420
288 420 136
26 421 420
421 422 420
421 169 422
420 422 136
26 27 421
27 423 421
27 28 423
421 423 169
136 422 292
422 424 292
422 169 424
292 424 106
86 221 408
221 425 408
221 117 425
408 425 166
117 426 425
426 427 425
426 170 427
425 427 166
117 227 426
227 428 426
227 90 428
426 428 170
166 427 412
427 429 412
427 170 429
412 429 102
87 402 228
402 430 228
402 165 430
228 430 118
165 431 430
431 432 430
431 171 432
430 432 118
165 407 431
407 433 431
407 101 433
431 433 171
118 432 233
432 434 233
432 171 434
233 434 91
4 435 81
435 436 81
435 172 436
81 436 80
172 437 436
437 438 436
437 173 438
436 438 80
172 439 437
439 440 437
439 95 440
437 440 173
80 438 79
438 441 79
438 173 441
79 441 78
1 5 443
5 442 443
5 6 442
443 442 175
6 444 442
444 445 442
444 174 445
442 445 175
6 7 444
7 446 444
7 8 446
444 446 174
175 445 448
445 447 448
445 174 447
448 447 95
89 414 405
414 449 405
414 167 449
405 449 164
167 450 449
450 451 449
450 176 451
449 451 164
167 413 450
413 452 450
413 102 452
450 452 176
164 451 406
451 453 406
451 176 453
406 453 101
86 262 455
262 454 455
262 130 454
455 454 178
130 456 454
456 457 454
456 177 457
454 457 178
130 268 456
268 458 456
268 98 458
456 458 177
178 457 460
457 459 460
457 177 459
460 459 108
87 461 251
461 462 251
461 179 462
251 462 125
179 463 462
463 464 462
463 180 464
462 464 125
179 465 463
465 466 463
465 109 466
463 466 180
125 464 256
464 467 256
464 180 467
256 467 97
85 468 212
468 469 212
468 181 469
212 469 113
181 470 469
470 471 469
470 170 471
469 471 113
181 472 470
472 429 470
472 102 429
470 429 170
113 471 216
471 428 216
471 170 428
216 428 90
85 205 474
205 473 474
205 112 473
474 473 182
112 475 473
475 476 473
475 171 476
473 476 182
112 211 475
211 434 475
211 91 434
475 434 171
182 476 477
476 433 477
476 171 433
477 433 101
1 443 84
443 478 84
443 175 478
84 478 83
175 479 478
479 480 478
479 172 480
478 480 83
175 448 479
448 439 479
448 95 439
479 439 172
83 480 82
480 435 82
480 172 435
82 435 4
8 339 446
339 481 446
339 149 481
446 481 174
149 482 481
482 483 481
482 183 483
481 483 174
149 342 482
342 484 482
342 96 484
482 484 183
174 483 447
483 485 447
483 183 485
447 485 95
78 441 336
441 486 336
441 173 486
336 486 148
173 487 486
487 488 486
487 183 488
486 488 148
173 440 487
440 485 487
440 95 485
487 485 183
148 488 337
488 484 337
488 183 484
337 484 96
85 474 468
474 489 468
474 182 489
468 489 181
182 490 489
490 491 489
490 176 491
489 491 181
182 477 490
477 453 490
477 101 453
490 453 176
181 491 472
491 452 472
491 176 452
472 452 102
39 40 493
40 492 493
40 41 492
493 492 185
41 494 492
494 495 492
494 184 495
492 495 185
41 42 494
42 496 494
42 43 496
494 496 184
185 495 498
495 497 498
495 184 497
498 497 97
43 44 500
44 499 500
44 45 499
500 499 187
45 501 499
501 502 499
501 186 502
499 502 187
45 46 501
46 503 501
46 47 503
501 503 186
187 502 505
502 504 505
502 186 504
505 504 98
47 48 507
48 506 507
48 49 506
507 506 189
49 508 506
508 509 506
508 188 509
506 509 189
49 50 508
50 510 508
50 51 510
508 510 188
189 509 512
509 511 512
509 188 511
512 511 108
35 36 514
36 513 514
36 37 513
514 513 191
37 515 513
515 516 513
515 190 516
513 516 191
37 38 515
38 517 515
38 39 517
515 517 190
191 516 519
516 518 519
516 190 518
519 518 109
12 392 302
392 520 302
392 162 520
302 520 140
162 521 520
521 522 520
521 192 522
520 522 140
162 395 521
395 523 521
395 104 523
521 523 192
140 522 307
522 524 307
522 192 524
307 524 92
74 295 399
295 525 399
295 139 525
399 525 163
139 526 525
526 527 525
526 193 527
525 527 163
139 301 526
301 528 526
301 92 528
526 528 193
163 527 400
527 529 400
527 193 529
400 529 103
88 380 371
380 530 371
380 161 530
371 530 158
161 531 530
531 532 530
531 194 532
530 532 158
161 384 531
384 533 531
384 103 533
531 533 194
158 532 376
532 534 376
532 194 534
376 534 104
43 500 496
500 535 496
500 187 535
496 535 184
187 536 535
536 537 535
536 195 537
535 537 184
187 505 536
505 538 536
505 98 538
536 538 195
184 537 497
537 539 497
537 195 539
497 539 97
51 315 510
315 540 510
315 143 540
510 540 188
143 541 540
541 542 540
541 196 542
540 542 188
143 314 541
314 543 541
314 99 543
541 543 196
188 542 511
542 544 511
542 196 544
511 544 108
35 514 320
514 545 320
514 191 545
320 545 144
191 546 545
546 547 545
546 197 547
545 547 144
191 519 546
519 548 546
519 109 548
546 548 197
144 547 321
547 549 321
547 197 549
321 549 100
92 524 528
524 550 528
524 192 550
528 550 193
192 551 550
551 552 550
551 194 552
550 552 193
192 523 551
523 534 551
523 104 534
551 534 194
193 552 529
552 533 529
552 194 533
529 533 103
89 258 266
258 553 266
258 126 553
266 553 129
126 554 553
554 555 553
554 195 555
553 555 129
126 257 554
257 539 554
257 97 539
554 539 195
129 555 267
555 538 267
555 195 538
267 538 98
88 373 557
373 556 557
373 159 556
557 556 198
159 558 556
558 559 556
558 154 559
556 559 198
159 377 558
377 362 558
377 93 362
558 362 154
198 559 560
559 361 560
559 154 361
560 361 105
88 557 378
557 561 378
557 198 561
378 561 160
198 562 561
562 563 561
562 157 563
561 563 160
198 560 562
560 370 562
560 105 370
562 370 157
160 563 383
563 369 383
563 157 369
383 369 94
39 493 517
493 564 517
493 185 564
517 564 190
185 565 564
565 566 564
565 180 566
564 566 190
185 498 565
498 467 565
498 97 467
565 467 180
190 566 518
566 466 518
566 180 466
518 466 109
47 507 503
507 567 503
507 189 567
503 567 186
189 568 567
568 569 567
568 177 569
567 569 186
189 512 568
512 459 568
512 108 459
568 459 177
186 569 504
569 458 504
569 177 458
504 458 98
28 332 423
332 570 423
332 147 570
423 570 169
147 571 570
571 572 570
571 199 572
570 572 169
147 331 571
331 573 571
331 100 573
571 573 199
169 572 424
572 574 424
572 199 574
424 574 106
58 416 326
416 575 326
416 168 575
326 575 146
168 576 575
576 577 575
576 200 577
575 577 146
168 419 576
419 578 576
419 107 578
576 578 200
146 577 327
577 579 327
577 200 579
327 579 99
86 580 219
580 581 219
580 201 581
219 581 115
201 582 581
582 583 581
582 200 583
581 583 115
201 584 582
584 579 582
584 99 579
582 579 200
115 583 224
583 578 224
583 200 578
224 578 107
87 230 586
230 585 586
230 120 585
586 585 202
120 587 585
587 588 585
587 199 588
585 588 202
120 236 587
236 574 587
236 106 574
587 574 199
202 588 589
588 573 589
588 199 573
589 573 100
86 455 580
455 590 580
455 178 590
580 590 201
178 591 590
591 592 590
591 196 592
590 592 201
178 460 591
460 544 591
460 108 544
591 544 196
201 592 584
592 543 584
592 196 543
584 543 99
87 586 461
586 593 461
586 202 593
461 593 179
202 594 593
594 595 593
594 197 595
593 595 179
202 589 594
589 549 594
589 100 549
594 549 197
179 595 465
595 548 465
595 197 548
465 548 109