len = 15;
width = 3;
Point(1) = {0,0,0};
Point(2) = {len,0,0};
Point(3) = {len,width,0};
Point(4) = {0,width,0};
Line(1) = {1,2};
Line(2) = {2,3};
Line(3) = {3,4};
Line(4) = {4,1};
Line Loop(1) = {1,2,3,4};
Plane Surface(6) = {1};
Characteristic Length {1, 4} = 5.0;
Characteristic Length {2, 3} = 0.5;
